slides-02-getting-started
…
# A tibble: 1 × 2
  age_mean age_mean_se
     <dbl>       <dbl>
1     48.5       0.445

Using {dplyr} functions

Tibble:

towny %>%
  filter(csd_type == "township") %>%
  select(csd_type, name)

# A tibble: 195 × 2
   csd_type name                  
   <chr>    <chr>                 
 1 township Addington Highlands   
 2 township Adelaide Metcalfe     
 3 township Adjala-Tosorontio     
 4 township Admaston/Bromley      
 5 township Alberton              
 6 township Alfred and Plantagenet
 7 township Algonquin Highlands   
 8 township Alnwick/Haldimand     
 9 township Amaranth              
10 township The Archipelago       
# ℹ 185 more rows
…
